{
	"BUTTON_AFFICHER_PLUS_DE_MESSAGES": "Display more messages",
	"BUTTON_AFFICHER_PLUS_UTILISATEURS": "Display more users",
	"BUTTON_AFFICHER_CARTE": "Show menu",
	"BUTTON_AIDE": "Help",
	"BUTTON_AJOUTER": "Add",
	"BUTTON_ANNULER": "Cancel",
	"BUTTON_CACHER_CARTE": "Hide menu",
	"BUTTON_CERCLES": "My network",
	"BUTTON_CGU_2": "GTU",
	"BUTTON_CHANGER_LANGUE_MESSAGE": "Change the message language",
	"BUTTON_CHOISIR": "Choose",
	"BUTTON_CONNEXION": "Login",
	"BUTTON_CREER_UN_COMPTE": "Create an account",
	"BUTTON_DECONNEXION": "Logout",
	"BUTTON_EFFACER_DONNEES": "Delete all local data",
	"BUTTON_ENREGISTRER": "Register",
	"BUTTON_ESSAYER": "Give it a try",
	"BUTTON_MES_MESSAGES": "My messages",
	"BUTTON_MODIFIER": "Modify",
	"BUTTON_NON": "No",
	"BUTTON_OUI": "Yes",
	"BUTTON_PARTAGER": "Share",
	"BUTTON_PROFIL": "My Profile",
	"BUTTON_PUBLIER_MESSAGE": "Publish",
	"BUTTON_PUBLIER_MESSAGE_OPTIONS": "Publishing options",
	"BUTTON_PUBLIER_MESSAGE_PIECE_JOINTE": "Add attachment",
	"BUTTON_PUBLIER_MESSAGE_RESEAUX": "Change visibility",
	"BUTTON_RECUPERER_NOUVEAUX_MESSAGES": "Refresh messages",
	"BUTTON_REPONDRE": "Reply",
	"BUTTON_RESTAURATION_AVATAR": "Restore the default avatar",
	"BUTTON_SAUVEGARDER": "Save",
	"BUTTON_SELECTIONNEZ_ESPACE": "Select a space",
	"BUTTON_SES_MESSAGES": "Your messages",
	"BUTTON_SUPPRIMER": "Delete",
	"BUTTON_TERMINER_DEFI": "Close the challenge",
	"BUTTON_UTILISER_IMAGE": "Use this picture",

	"CHOISIR_IMAGE": "Choose an image",
	"ESPACE": "Space",
	"ALL_RIGHTS_RESERVED": "All rights reserved",

	"EQUIPE_NOM_ALBERT": "Albert Cau",
	"EQUIPE_NOM_CHRISTIAN": "Christian Colin",
	"EQUIPE_NOM_MAEN": "Maen Juganaikloo",
	"EQUIPE_ROLE_ALBERT":"Co-founder",
	"EQUIPE_ROLE_CHRISTIAN":"Co-founder & scientific advisor",
	"EQUIPE_ROLE_MAEN":"Co-founder",
	"EQUIPE_TITLE": "The team behind PairForm",
	"EQUIPE_CONTENU_ALBERT": "specialises in Android and web development. Conscious of efficient work methods and organisation, he develops tip-top workflows.",
	"EQUIPE_CONTENU_CHRISTIAN": "was the initiative behind the PairForm project. Teacher-researcher at IMT Atlantique, he runs the Centre for the Support of School Teaching Practices.",
	"EQUIPE_CONTENU_MAEN": "specialises in iOS and web development. On demand, Maen can transform into a graphic designer using vector graphics, layers and CSS faster than his shadow.",
	"EQUIPE_PROJET_TITLE": "The PairForm project",
	"EQUIPE_REFERENCE_TITLE": "Following us:",
	"EQUIPE_PROJET_PARAGRAPH_1": "Our ambition is to improve the pedagogical quality of training courses and to facilitate co-operation within organisations. We wish to pursue this objective in collaboration with our users and partners, involving all parties in the conception of our product.",
	"EQUIPE_PROJET_PARAGRAPH_2": "PairForm was founded at IMT Atlantique, and integrates the know-how of a team of specialists in modern pedagogical and digital development. It is at the crossroads of modern pedagogical innovation: learning community, gamification and peer learning.",
	"EQUIPE_PROJET_PARAGRAPH_3": "Our product has been used by many higher educational establishments, as well as private companies, for many years now, for basic and continuous training.",
	"EQUIPE_PARTENAIRES_THUMBNAIL_1": "Institut Mines-Telecom",
	"EQUIPE_PARTENAIRES_THUMBNAIL_2": "Atlanpôle",
	"EQUIPE_PARTENAIRES_THUMBNAIL_3": "Région Pays de la Loire",
	"EQUIPE_PARTENAIRES_THUMBNAIL_4": "Fondation UNIT",
	"EQUIPE_PARTENAIRES_THUMBNAIL_5": "BPI France",
	"EQUIPE_PARTENAIRES_THUMBNAIL_6": "Ministry of Higher Education and Research",


	"LABEL_AFFICHER": "Show",
	"LABEL_AUTRES_LANGUES": "Other",
	"LABEL_CHANGER_LANGUE_APP": "You also want to use as application language ?",
	"LABEL_CLEF": "Key",
	"LABEL_CLEF_CLASSE": "Class key",
	"LABEL_COMPTE_VALIDE_UTILISER": "Your ID has already been validated: You can now use PairForm on your #[a(href='https://www.pairform.fr') computer] , #[a(href='https://itunes.apple.com/fr/app/pairform/id673935516?mt=8&amp;uo=4', target='itunes_store') iOS]  or #[a(href='https://play.google.com/store/apps/details?id=cape.pairform') Android!]",
	"LABEL_COMPTE_PRESENT" :"You can now use PairForm on your #[a(href='https://www.pairform.fr') computer] , #[a(href='https://itunes.apple.com/fr/app/pairform/id673935516?mt=8&amp;uo=4', target='itunes_store') iOS]  or #[a(href='https://play.google.com/store/apps/details?id=cape.pairform') Android!]",
	"LABEL_COMPTE_VOULEZ_VOUS": "Do you want to perhaps navigate to #[a(href='../#/kiosque') the available resources on PairForm], or consult the web application's user's guide ?",
	"LABEL_COMPTE_AUTEUR_RESSOURCES": "If you are a resource author, are you perhaps interested in #[a(href='https://www.pairform.fr/doc/24/1/25') the author's manual] ?",
	"LABEL_CONNEXION_REUSSI": "Successful login!",
	"LABEL_DECONNEXION_REUSSI": "Successful logout!",
	"LABEL_DESELECTIONER_ESPACE": "Deselect the space",
	"LABEL_CREATION_DE_COMPTE_REUSSI": "A validation E-mail has been sent.",
	"LABEL_DEFI": "Challenge",
	"LABEL_EMAIL": "E-mail",
	"LABEL_ERREUR_MAXIMUM_TAGS": "The maximum number of tags is already reached.",
	"LABEL_ERREUR_SAISIE_CHAMP_VIDE": "All required fields must be filled.",
	"LABEL_ERREUR_SAISIE_MESSAGE": "You can't post a blank message.",
	"LABEL_ERREUR_SAISIE_MOT_DE_PASSE": "The password is invalid.",
	"LABEL_ERREUR_SAISIE_MOT_DE_PASSE_CONFIRMATION": "The confirmation password must be the same as the password.",
	"LABEL_ETABLISSEMENT": "organization",
	"LABEL_LANGUE": "Language",
	"LABEL_LANGUE_PRINCIPALE": "Main",
	"LABEL_LANGUE_PRINCIPALE_2": "Main language",
	"LABEL_LANGUES": "Languages",
	"LABEL_LIEN_INVALIDE": "This validation link is invalid.",
	"LABEL_LISTE_MESSAGES_VIDE": "There are no messages on this element.",
	"LABEL_MAIL": "contact - at - pairform.fr",
	"LABEL_MAIL_CHANGER_MOT_DE_PASSE": "We recommend that you change your default password immediately in profile settings (the gear icon on the profile screen).",
	"LABEL_MAIL_ENVOYE": "Your new email has been sent.",
	"LABEL_MAIL_QUESTIONS": "If you have any questions regarding the use of PairForm, contact us at ",
	"LABEL_MAIL_REPONSE": "we will get back to you as soon as we can.",
	"LABEL_MAIL_USURPATION": "If you did not request an email confirmation, and someone has attempted to gain access to your account, contact us at the following address:  ",
	"LABEL_MAIL_VALIDE": "Your email address has already been verified.",
	"LABEL_MEDAILLE": "Medal",
	"LABEL_MOT_DE_PASSE": "Password",
	"LABEL_MOT_DE_PASSE_ANCIEN": "Old Password",
	"LABEL_MOT_DE_PASSE_CONFIRMATION": "Password confirmation",
	"LABEL_MOT_DE_PASSE_NOUVEAU": "New password",
	"LABEL_NOM": "Name",
	"LABEL_PRENOM": "First name",
	"LABEL_PSEUDO": "Username",
	"LABEL_IDENTIFIANT": "Username or e-mail",
	"LABEL_PTS": "Pts",
	"LABEL_SUPPRIMER_MEDAILLE": "Delete the medal",
	"LABEL_TAGS": "Tag(s)",
	"LABEL_USER_ADMINISTRATEUR": "Administrator",
    "LABEL_USER_ANIMATEUR": "Animator",
    "LABEL_USER_COLLABORATEUR": "Collaborator",
    "LABEL_USER_EXPERT": "Expert",
    "LABEL_USER_LECTEUR": "Reader",
	"LABEL_USER_PARTICIPANT": "Contributor",
	"LABEL_VISIBILITE": "Visibility",


	"LABEL_RGPD": "In accordance with General Data Protection Regulation (GDPR), you can export all your personal data, and delete your account permanently.",
	"LABEL_RGPD_DELETE": "Delete my account permanently",
	"LABEL_RGPD_EXPORT": "Export my personal data",

	"LABEL_RGPD_DELETE_CONFIRM": "This operation cannot be undone.",
	"LABEL_RGPD_DELETE_CONFIRMED": "Your account have been deleted. You're about to be logged out.",


	"LABEL_COOKIE_CONSENT": "We use cookies for statistics, to improve our website ergonomy and content.",
	"LABEL_COOKIE_CONSENT_PLUS": "Learn more",
	"LABEL_COOKIE_CONSENT_ACCEPTER": "I agree to help",
	"LABEL_COOKIE_CONSENT_REFUSER": "I don't want cookies",

	"TITLE_ACCUEIL": "Transform your training course",
			"CONTENU_ACCUEIL_1": "Are you looking to incorporate blended learning,",
			"CONTENU_ACCUEIL_2": "social learning or flipped learning?",
	"TITLE_ACCUEIL_COMMENT": "How does it work?",
	"TITLE_ACCUEIL_REFERENCE": "They trust us",
	"TITLE_ACTIVITÉ": "Activity",
	"TITLE_AUTRES_LANGUES": "Other languages",
	"TITLE_CERCLES": "My network",
	"TITLE_CHANGEMENT_DE_SCORES": "Score changes",
	"TITLE_CLASSES": "My classes",
	"TITLE_CLASSES_REJOINTES": "Classes joined",
	"TITLE_CONNEXION": "Login",
	"TITLE_CREATION": "Created: ",
	"TITLE_CREER_CERCLE": "Create a circle",
	"TITLE_DERNIERS_SUCCES": "Last success",
	"TITLE_DERNIERS_MESSAGES": "Latest messages",
	"TITLE_DERNIERS_BADGES": "Last badges",
	"TITLE_DERNIÈRES_RESSOURCES_PARUES": "Latest published resources",
	"TITLE_EMAIL_VERIFY": "Please verify that the email you have submitted is yours",
	"TITLE_EMAIL_TRY_PASSWORD": "Please try resetting your password again.",
	"TITLE_ERREUR_IDENTIFIANTS": "Wrong login",
	"TITLE_ESPACES_ET_RESSOURCES": "Spaces and resources",
			"CONTENU_ESPACES_ET_RESSOURCES_1": "On PairForm, the documents are grouped by resource (equivalent to a training session). These resources make up one space (equivalent to a company)",
			"CONTENU_ESPACES_ET_RESSOURCES_2": "In order to start creating documents, create or select an existing resource",
			"CONTENU_ESPACES_ET_RESSOURCES_3": "In order to create a resource, select a space by clicking 'Select a space', then click 'Add'",
	"TITLE_FREQUENCE_NOTIFICATIONS": "Frequency of notifications",
	"TITLE_LANGUE_APPLICATION": "Application language",
	"TITLE_MAIL_ENVOYE": "E-mail sent",
	"TITLE_MAIL_VALIDE": "E-mail verified",
	"TITLE_MES_CERCLES": "My circles",
	"TITLE_MES_RESSOURCES": "Resources consulted",
	"TITLE_MODIFIER_AVATAR": "Change my avatar",
	"TITLE_MODIFIER_COMPTE": "Manage my account",
	"TITLE_NOTIFICATIONS":"Notifications",
	"TITLE_NOTIFICATIONS_RESUME": "Summaries",
	"TITLE_NOTIFICATIONS_DOCUMENTS_FAVORIS": "Favourite documents",
	"TITLE_NOTIFICATIONS_REPONSES": "Responses",
			"CONTENU_NOTIFICATIONS_RESUME": "every evening, an email will summarise recent activity (highest voted messages...) on the documents",
			"CONTENU_NOTIFICATIONS_DOCUMENTS_FAVORIS": "every two hours, you will be alerted if a message is posted on this document.",
			"CONTENU_NOTIFICATIONS_REPONSES": "if someone responds to you, you will be alerted within the hour if you haven't read the response.",
	"TITLE_TYPES_NOTIFICATIONS": "There are three types of notifications",
	"TITLE_NOTIFICATIONS_NOUVELLES": "New notifications",
			"CONTENU_NOTIFICATIONS_NOUVELLES": "every four hours, if someone made an action that you should be warned about.",
	"TITLE_NOUVEAU_COMPTE": "Create account",
	"TITLE_PREFERENCES":"Preferences",
	"TITLE_PROFIL":"Profile",
	"TITLE_QUE_FAIRE": "What to do?",
	"TITLE_QUE_FAIRE_PRESENT": "What to do now?",
	"TITLE_QUOI_FAIRE": "What to do?",
	"TITLE_RECHERCHE_PROFIL": "Users",
	"TITLE_REINITIALISER_MOT_DE_PASSE": "Reset password",
	"TITLE_REJOINDRE_CLASSE": "Join a class",
	"TITLE_RESEAU": "Network",
	"TITLE_RESET_PASSWORD": "Your password reset request has expired.",
	"TITLE_RESET_PASSWORD_CONTACT_US": "If you think this is due to another issue, please contact us at the following address",
	"TITLE_RESSOURCE": "Resource",
	"TITLE_SES_RESSOURCES": "Your resources",
	"TITLE_TOUS_LES_ESPACES": "All the spaces",
	"TITLE_PROFIL": "Profile",
	"TITLE_UTILISATEURS":"Users",

	"WEB_FORMAT_DATE_HEURE": "m/d/y \\a\\t G:i",

	"WEB_BUTTON_AJOUTER_A_CE_CERCLE": "Add to circle",
	"WEB_BUTTON_AJOUTER_A_CETTE_CLASSE": "Add to this class",
	"WEB_BUTTON_AJOUTER_UNE_PERSONNE_CERCLE": "Add a person to this circle",
	"WEB_BUTTON_AJOUTER_UNE_PERSONNE_CLASSE": "Add a person to this class",
	"WEB_BUTTON_AUTRES_RESSOURCES": "Other resources",
	"WEB_BUTTON_CLIQUEZ_ICI": "click here",
	"WEB_BUTTON_CONTEXT": "Context",
	"WEB_BUTTON_CREER_CLASSE": "Create a class",
	"WEB_BUTTON_CREEZ_VOUS_UN_COMPTE": "Create an account!",
	"WEB_BUTTON_DETACHER_PANNEAU": "Detach this panel",
	"WEB_BUTTON_ECRIRE_MESSAGE": "Write a message",
	"WEB_BUTTON_LISTE_SUCCES": "Success list",
	"WEB_BUTTON_MDP_OUBLIE": "Forgotten your Password?",
	"WEB_BUTTON_MESSAGES_RESSOURCE": "Messages on this resource",
	"WEB_BUTTON_RECHERCHE_PROFIL": "Profile search",
	"WEB_BUTTON_RECHERCHER": "Search",
	"WEB_BUTTON_REINIT_MESSAGES_LUS": "Reset unread messages",
	"WEB_BUTTON_RETABLIR": "Restore",
	"WEB_BUTTON_SELECTIONNER": "Select",
	"WEB_BUTTON_SUPPRIMER_CE_CERCLE": "Delete this circle",
	"WEB_BUTTON_SUPPRIMER_CETTE_CLASSE": "Delete this class",
	"WEB_BUTTON_SUPPRIMER_CET_UTILISATEUR": "Delete this user",
	"WEB_BUTTON_TRIER_PAR": "Sort by",
	"WEB_BUTTON_VALIDER": "Validate",

	"WEB_LABEL_ACCEPTER_CGU": "You must accept the GTU to continue.",
	"WEB_LABEL_ACTION_RESEAU_SOCIAL": "Any action related to the social network you assign (or remove) points",
	"WEB_LABEL_ACTIVE": "Activated",
	"WEB_LABEL_ACTIVEES": "Enabled",
	"WEB_LABEL_ACTIVER": "Activate",
	"WEB_LABEL_AFFICHAGE_DES_NOMS_REELS": "real names display",
	"WEB_LABEL_AFFICHAGE_NOMS_REELS_A_ETE": "The real names display was",
	"WEB_LABEL_AFFICHER_A_PROPOS": "You can view this panel at any time by clicking on \"About\" in the menu on the left.",
	"WEB_LABEL_AFFICHER_AIDE": "You can always enable this support in the general menu.",
	"WEB_LABEL_AJOUTER_PERSONNE_A_CE": "Add a person to this",
	"WEB_LABEL_ATTACHER_PANNEAU": "Attach this panel",
	"WEB_LABEL_ATTENDRE_REPONSE_MAIL": "You will shortly receive a response to your request, please wait until you receive the email reply",
	"WEB_LABEL_ATTRIBUER_MEDAILLE_ARGENT": "Assign a silver medal",
	"WEB_LABEL_ATTRIBUER_MEDAILLE_BRONZE": "Assign a bronze medal",
	"WEB_LABEL_ATTRIBUER_MEDAILLE_OR": "Assign a gold medal",
	"WEB_LABEL_ATTRIBUER_TAGS": "or assign tags",
	"WEB_LABEL_AUCUN_OBJET_APPRENTISSAGE": "No learning object on this page.",
	"WEB_LABEL_AUCUN_RESULTAT": "No results",
	"WEB_LABEL_AUCUNE_NOTIFICATION_RECENTE": "No recent notification",
	"WEB_LABEL_AUTRES_ACTIONS": "And other actions depending on your level",
	"WEB_LABEL_AUTRES_LANGUES": "Other language(s)",
	"WEB_LABEL_AVATAR_MODIFIE_AVEC_SUCCES": "Avatar changed successfully!",
	"WEB_LABEL_AVEC_AUTRES_RESSOURCES": "with other resources",
	"WEB_LABEL_AVOIR_RANG_ELEVE": "You do not have a high enough rank to use this feature.",
	"WEB_LABEL_BADGE_SUCCESS_DESCRIPTION_1": "Given by",
	"WEB_LABEL_BADGE_SUCCESS_DESCRIPTION_1": "for the resource",
	"WEB_LABEL_BENEFICIER_FOCNTIONNALITE_AVOIR_1_POINT": "To use this feature, you must have at least 1 point on this resource.",
	"WEB_LABEL_BENIFICIEZ": "Benefit",
	"WEB_LABEL_CARACTERES_MIN": "characters min.",
	"WEB_LABEL_CHANGE": "What's the difference?",
	"WEB_LABEL_CHANGER_VISIBILITE": "Change visibility",
	"WEB_LABEL_CLASSE_REJOINTE": "You have successfully joined the class!",
	"WEB_LABEL_CLIC_DROIT": "right click",
	"WEB_LABEL_CLIC_DROIT_COMMENTAIRE": "Right click on a comment",
	"WEB_LABEL_CLIQUE_DEHORS": "Click outside the box to close this dialog.",
	"WEB_LABEL_CLIQUE_VISUALISER_PROFIL": "Click to view user profile",
	"WEB_LABEL_CLIQUEZ_ACCEDER_RESSOURCE": "Click to access the resource",
	"WEB_LABEL_CLIQUEZ_ICI": "Click here",
	"WEB_LABEL_CLIQUEZ_POUR_SUPPRIMER": "Click to delete",
	"WEB_LABEL_COCHER_CASE": "By checking this box, you accept the",
	"WEB_LABEL_CONTINUER": "Continue",
	"WEB_LABEL_COM_DEJA_EN_ENREGISTREMENT": "Your comment is already being recorded. Please wait ...",
	"WEB_LABEL_COMMENTAIRES_BULLE_ROUGE": "The feedback from the community is marked with a red bubble.",
	"WEB_LABEL_COMMENTAIRE_INUTILE": "This comment is not relevant / helpful",
	"WEB_LABEL_COMMENTAIRE_POSTE": "Your comment has been posted!",
	"WEB_LABEL_COMMENTAIRE_UTILE": "This comment is relevant / helpful",
	"WEB_LABEL_COMMENTER_PAGE_ENTIERE": "To comment on the whole page, comment on the page title!",
	"WEB_LABEL_COMMENTER_SUR_RESSOURCE": "You can also comment on the resource!",
	"WEB_LABEL_CONDITIONS_GENERALES_UTILISATION": "PairForm terms and conditions",
	"WEB_LABEL_CONNECTE_POUR_CHANGER_PARAMETRE": "You must be logged in to change this setting.",
	"WEB_LABEL_CONNEXION_OU_CREER_COMPTE": "Login or create an account",
	"WEB_LABEL_CREEE_AVEC_SUCCES": "has been created!",
	"WEB_LABEL_CREEZ_UN_COMPTE": "Create an account",
	"WEB_LABEL_DEFI_TERMINE": "Challenge completed",
	"WEB_LABEL_DEPLACEZ_COM_SUR_GRAIN": "Move the comment to the desired grain; release other to cancel.",
	"WEB_LABEL_DESACTIVE": "Disabled",
	"WEB_LABEL_DESACTIVEES": "Disabled",
	"WEB_LABEL_DESACTIVER": "Deactivate",
	"WEB_LABEL_DETACHER_PANNEAU": "Detach this panel",
	"WEB_LABEL_DISPONIBLE_SUR_APPSTORE": "Available on the App Store",
	"WEB_LABEL_DISPONIBLE_SUR_PLAYSTORE": "Available on Play Store",
	"WEB_LABEL_DONNER_MEDAILLES": "give medals",
	"WEB_LABEL_ECHANGER_AVEC_PAIRS": "Interact with your peers",
	"WEB_LABEL_ECOLE_ENTREPRISE": "School, business ...",
	"WEB_LABEL_ECRIRE_MESSAGE": "Write a message",
	"WEB_LABEL_ECRIRE_NOUVEAU_MESSAGE": "Write a new message",
	"WEB_LABEL_ELEMENT_PAS_DE_CONTENU": "This element (resource, page, user ...) has no content.",
	"WEB_LABEL_EN_LIGNE": "Online",
	"WEB_LABEL_EN_SAVOIR_PLUS": "To learn more about how",
	"WEB_LABEL_ERREUR": "Error",
	"WEB_LABEL_ERREUR_CHOISIR_AUTRE": "Please choose another one.",
	"WEB_LABEL_ERREUR_COMMENTER_SOUS_MENU": "You cannot comment on a sub-menu.",
	"WEB_LABEL_ERREUR_ENREGISTREMENT": "Registration error: please contact the CAPE of the Ecole des Mines de Nantes.",
	"WEB_LABEL_ERREUR_ENREGISTREMENT_MSG": "Error message recording; please try again.",
	"WEB_LABEL_ERREUR_MAIL_UTILISE": "Your email address is already taken.",
	"WEB_LABEL_ERREUR_MSG_INEXISTANT": "The message specified in the URL does not exist.",
	"WEB_LABEL_ERREUR_MODIF": "Changing error!",
	"WEB_LABEL_ERREUR_MODIF_LANGUES": "Error when changing languages​​.",
	"WEB_LABEL_ERREUR_NOM_UTILISE": "Your username is already taken.",
	"WEB_LABEL_ERREUR_PARAMETRES_NON_ENREGISTRES": "Your settings are not saved, please try again",
	"WEB_LABEL_ERREUR_REESAYER": "An error has occurred: please try again.",
	"WEB_LABEL_ERREUR_RENSEIGNER_NOM": "You must fill in a name.",
	"WEB_LABEL_ERREUR_ROLE_CREER_CLASSE": "You do not have a sufficient role to create a class.",
	"WEB_LABEL_ERREUR_SAISIR_AUTRE": "Please enter another.",
	"WEB_LABEL_ERREUR_SESSION_EXPIREE_MSG": "Your session has expired; please disconnect, reconnect and try again.",
	"WEB_LABEL_ETRE_RANG_SUPERIEUR": "You must be an Animator rank or higher to use this feature.",
	"WEB_LABEL_ETUDIEZ": "Study",
	"WEB_LABEL_ET_VOILA": "And voilà!",
	"WEB_LABEL_FAIRE_CLIC_DROIT_ELEMENT": "Right-click on an element of the page to access a menu",
	"WEB_LABEL_FERMER_PANNEAU": "Close this panel",
	"WEB_LABEL_FONCTIONNALITÉ_INDISPONIBLE": "This feature is not yet available.",
	"WEB_LABEL_FORMAT_FICHIER_INVALIDE": "Invalid file format",
	"WEB_LABEL_FORMER_AVEC_VOS_PAIRS": "Train with your peers! Enter PairForm",
	"WEB_LABEL_GAGNER_DEFI": "Win a challenge",
	"WEB_LABEL_GRAIN_SANS_IDENTIFIANT": "This grain has no identifier, and therefore cannot be commented.",
	"WEB_LABEL_HEURES": "hour(s)",
	"WEB_LABEL_INACTIF": "Inactive",
	"WEB_LABEL_INACTIF_DEPUIS": "Inactive for",
	"WEB_LABEL_INFO_MODIFIEE_AVEC_SUCCES": "Successfully modified information!",
	"WEB_LABEL_INFOS_PERSO": "Personal information",
	"WEB_LABEL_INSCRIPTION_TERMINEE": "Registration is complete!",
	"WEB_LABEL_INVALIDER": "invalidate",
	"WEB_LABEL_JOURS": "day(s)",
	"WEB_LABEL_LANGUE_MODIFIEE": "Language changed",
	"WEB_LABEL_LANGUE_MODIFIEE_AVEC_SUCCES": "Languages modified successfully !",
	"WEB_LABEL_LES_NOTIFICATIONS": "notifications",
	"WEB_LABEL_LIMITE_UTILISATEURS_MAJ": "The limit of the user using the updates in real time has been exceeded ; so you can not use this feature.",
	"WEB_LABEL_LISTE_DES": "List of",
	"WEB_LABEL_LOGO_PAIRFORM": "PairForm logo",
	"WEB_LABEL_MAJ_TEMPS_REEL": "Updated in real time is being activated ...",
	"WEB_LABEL_MAJ_TEMPS_REEL_ACTIVEE": "Updated in real time enabled",
	"WEB_LABEL_MAJ_TEMPS_REEL_DESACTIVEE": "Updated in real time is disabled",
	"WEB_LABEL_MEDAILLE_ATTRIBUEE": "Medal awarded.",
	"WEB_LABEL_MESSAGE_DEFI_ACTIF": "This message is an active challenge: you can participate",
	"WEB_LABEL_MESSAGE_DEFI_TERMINE": "This message is a completed challenge, the answers to which are exposed",
	"WEB_LABEL_MESSAGE_PERTINANT_COLLABORATEUR": "This message is relevant to a contributor",
	"WEB_LABEL_MESSAGE_RECUPERE": "One of your messages has been reactivated: you get 30 points.",
	"WEB_LABEL_MESSAGE_SUPPRIME": "One of your messages was deleted: you lose 30 points.",
	"WEB_LABEL_MESSAGES_ACTUALISES": "Update messages.",
	"WEB_LABEL_MESSAGES_ATTACHES": "Messages attached to paragraph",
	"WEB_LABEL_MESSAGES_DANS_SOUS_MENU": "There are messages in the submenus",
	"WEB_LABEL_MESSAGES_LUS_REINITIALISES": "Read messages reset. The page will be updated ...",
	"WEB_LABEL_MESSAGES_RECHARGES": "Messages will be charged ...",
	"WEB_LABEL_MESSAGES_SUR_ELEMENT": "There messages over this element",
	"WEB_LABEL_MINUTES": "minute(s)",
	"WEB_LABEL_MODIFIFER_OPTINOS_MESSAGE": "Change message options",
	"WEB_LABEL_MOIS": "month",
	"WEB_LABEL_MSG_DEPLACE_AVEC_SUCCES": "The message has been moved successfully.",
	"WEB_LABEL_MSG_RETABLI_AVEC_SUCCES": "Message successfully restored.",
	"WEB_LABEL_MSG_SUPPRIME": "Message deleted.",
	"WEB_LABEL_MSG_SUPPRIMER_AVEC_SUCCES": "Message deleted successfully.",
	"WEB_LABEL_MSG_SUPPRIME_DEFINITIVEMENT": "Message deleted permanently.",
	"WEB_LABEL_NAVIGATEUR_INCOMPATIBLE": "Your current browser is not compatible with Pairform. Please update your browser.",
	"WEB_LABEL_NAVIGATEUR_INCOMPATIBLE_SUITE": "Note: You cannot use Safari incognito with this site.",
	"WEB_LABEL_NAVIGUER_SITE_PAIRFORM": "You are browsing on a website using Pairform technology, the first social networking platform",
	"WEB_LABEL_NOM_CLASSE": "Class name",
	"WEB_LABEL_NOM_MAJ": "NAME",
	"WEB_LABEL_NOTIFICATION_PAR_MAIL": "The email notifications have been",
	"WEB_LABEL_NOTIONS_CONTENUS_RESSOURCES": "the concepts contained in the resource",
	"WEB_LABEL_NOUVEAUX_DROITS": "New rights",
	"WEB_LABEL_NOUVEAU_MDP_INVALIDE": "The new password is not valid (minimum 6 characters).",
	"WEB_LABEL_OPTIONNEL": "optional",
	"WEB_LABEL_PARTAGEZ": "Share",
	"WEB_LABEL_PARTICIPER_RESEAU_SOCIAL_CREER_COMPTE": "To participate in the social network, you must create an account on Pairform.",
	"WEB_LABEL_PAR_DEFAUT": "By default",
	"WEB_LABEL_PAR_EXEMPLE": "For example",
	"WEB_LABEL_PAS_VOTER_VOTRE_MESSAGE": "You cannot vote for your message.",
	"WEB_LABEL_PLUSIEURS_RESEAUX_SELECTIONNES": "several networks are selected.",
	"WEB_LABEL_POINTS_DROITS": "The more points you have, more rights you have.",
	"WEB_LABEL_POURSUIVEZ": "Continue",
	"WEB_LABEL_POUR_FERMER_FENETRE": "to close this window and return to the site",
	"WEB_LABEL_PRENEZ_NOTORIETE": "Take notoriety",
	"WEB_LABEL_PROFIL_UTILISATEUR": "A user profile",
	"WEB_LABEL_PROPRES_A_CHAQUE_RESSOURCE": "Specific to each resource, the points are a reflection of your involvement and appreciation of your knowledge by your peers.",
	"WEB_LABEL_PUBLIC": "Public",
	"WEB_LABEL_QUESTION_SUP_MSG_DEFINITIVEMENT": "Do you want to permanently delete this message?",
	"WEB_LABEL_QUESTION_SUP_RESEAU_DEFINITIVEMENT": "Do you want to permanently delete this network?",
	"WEB_LABEL_QUESTIONS_IDEES": "your questions and ideas within the resources",
	"WEB_LABEL_RANG_UTILISATEUR_MAJ": "User rank updated.",
	"WEB_LABEL_REAGIR_SUR_PARTIE": "You want to comment on this part?",
	"WEB_LABEL_LES_RESUMES": "summaries",
	"WEB_LABEL_FAVORI": "Favourite",
	"WEB_LABEL_NON_FAVORI": "Non-favourite",
	"WEB_LABEL_NOUVELLES_NOTIFICATIONS": "new notifications by e-mail",
	"WEB_LABEL_RENSEIGNER_CHAMP": "You must complete this field.",
	"WEB_LABEL_REPONDRE_MESSAGE_EXISTANT": "Reply to an existing message",
	"WEB_LABEL_REPONSE_VALIDEE": "Validated answer",
	"WEB_LABEL_REPONSE_VALIDEE_PAR_DEFIEUR": "This response has been validated by the challenger",
	"WEB_LABEL_SUP_RESEAU": "Network successfully deleted.",
	"WEB_LABEL_RESTAURATION_IMPOSSIBLE_MSG": "It is impossible to restore it later.",
	"WEB_LABEL_RETOUR_AUTEURS_EXPERTS_PARTICIPANTS": "the return of authors, experts and other participants",
	"WEB_LABEL_REVENIR_ROLE_NORMAL": "Return to normal role",
	"WEB_LABEL_SE_FAIRE_SUP_MSG": "Getting delete a message",
	"WEB_LABEL_SELECTION_RESEAU_AJOUT_UTILISATEUR": "Choose the network you want to add this user to.",
	"WEB_LABEL_SITE_UTILISE_PAIRFORM": "This site uses Pairform",
	"WEB_LABEL_SUCCES": "success",
	"WEB_LABEL_SUCCES_DEBLOQUES": "Unlocked success",
	"WEB_LABEL_SUP_MSG_AUTRES": "delete the message from other",
	"WEB_LABEL_SUP_MSG_DEFINITIVEMENT": "Delete permanently",
	"WEB_LABEL_SUPPRIMER_CE": "Delete this",
	"WEB_LABEL_SUR_CETTE_RESSOURCE": "on this resource.",
	"WEB_LABEL_SURVOLER_BTN_AFFICHER_MENU": "Rollover this button to display the main menu",
	"WEB_LABEL_SURVOLER_BTN_AFFICHER_PROFIL": "Rollover this button to view your personal menu",
	"WEB_LABEL_TRIER_PAR": "Sort by",
	"WEB_LABEL_TRIER_PAR_ESPACE": "Sort by institution",
	"WEB_LABEL_TRIER_PAR_THEME": "Sort by topic",
	"WEB_LABEL_UTILISATION_COOKIES": "By continuing your visit on this site, you accept the use of cookies for the good use of Pairform and for statistical purposes.",
	"WEB_LABEL_UTILISATEUR": "User",
	"WEB_LABEL_UTILISATEUR_AJOUTÉ_AVEC_SUCCES": "User successfully added.",
	"WEB_LABEL_UTILISATEUR_SUP_RESEAU": "Deleted user on that network.",
	"WEB_LABEL_UTILISATEURS_AJOUT_RESEAU": "Select the users to add to your network.",
	"WEB_LABEL_UTILISEZ_LE": "Use the",
	"WEB_LABEL_VALIDER": "validate",
	"WEB_LABEL_VALIDER_VOS_INFOS": "To submit your resources on Pairform, our team must validate your information",
	"WEB_LABEL_VALIDER_MAIL": "To send you e-mails about new messages, and allow you access to private docments, you'll need to confirm your e-mail address.",
	"WEB_LABEL_VOTER_MESSAGE": "Rate a message",
	"WEB_LABEL_VOTER_UTILITE_MESSAGE": "Rate the message's usefulness",
	"WEB_LABEL_VOTRE": "Your",
	"WEB_LABEL_VOTRE_SOURIS_VISUALISER": "your mouse to view",
	"WEB_LABEL_VOUS_POUVEZ": "You can then",

	"WEB_TITE_AUTORISATION_DEPOT": "Authorisation Application filing sent!",
	"WEB_TITLE_VALIDATION": "Validation",
	"WEB_TITLE_RESSOURCES_PAIRFORM": "PairForm resources",
	"WEB_LABEL_REDUIRE_PANNEAU" : "Minimize this panel",
	"WEB_LABEL_AGRANDIR_PANNEAU" : "Expand this panel",
	"WEB_LABEL_CONNEXION_AUTOMATIQUE": "automatic login",
	"WEB_LABEL_MESSAGE_PRIVE": "private message",
	"WEB_LABEL_CLIC_AFFICHE_COMMENTAIRES" : "Click on it to see comments.",
	"NOTIFICATION_CLIC_PROFIL" : "Click to see his / her profile",
	"WEB_LABEL_MENU_DASHBOARD" : "Dashboard",
	"WEB_LABEL_MENU_MESSAGES" : "All messages",
	"WEB_LABEL_MENU_RESSOURCES" : "Other resources",
	"WEB_LABEL_MENU_RECHERCHE" : "Search",
	"WEB_LABEL_MENU_PREFERENCES" : "Preferences",
	"WEB_LABEL_MENU_PRESENTATION" : "About",

	"WEB_LABEL_SIDEBAR_DASHBOARD": "Dashboard",
	"WEB_LABEL_SIDEBAR_MESSAGES": "Messages",
	"WEB_LABEL_SIDEBAR_PROFILE": "My profile",
	"WEB_LABEL_SIDEBAR_NETWORK": "My network",
	"WEB_LABEL_SIDEBAR_KIOSK": "Kiosk",
	"WEB_LABEL_SIDEBAR_USERS": "Users",
	"WEB_LABEL_SIDEBAR_PREFERENCES": "Preferences",
	"WEB_LABEL_SIDEBAR_RESOURCES": "My resources",
	"WEB_LABEL_SIDEBAR_HELP": "Help",

	"WS_ERREUR_URL_MISMATCH": "The URL where your section is stored differs from the one you declared in the backoffice. You'll not be able to authenticate.",
	"WS_ERREUR_AJOUT_RESEAU": "An error occured : please try again",
	"WS_ERREUR_AJOUT_RESEAU_DEJA_EXISTANT": "This user is already in this network!",
	"WS_ERREUR_CONTACTER_PAIRFORM": "An error has occurred: please contact Pairform team.",
	"WS_ERREUR_MAIL_UTILISE" : "Your email address is already taken.",
	"WS_ERREUR_NOM_UTILISE" : "Your username is already taken.",
	"WS_ERREUR_SAISIE_CHAMP_VIDE" :"All required form fields have not been filled out.",
	"WS_ERREUR_SAISIE_MOT_DE_PASSE_CONFIRMATION" : "The confirmation password must be the same of the password.",
	"WS_ERREUR_SUPPRESSION": "You don't have enough rights.",
	"WS_ERREUR_SUPPRESSION": "Your session has expired. Please log in again.",
	"WS_ERREUR_SUPPRESSION_TAG_AUTRE": "You don't have enough rights to delete other's tags.",
	"WS_MAIL_UTILISATEUR_PAS_VALIDE": "Your mail wasn't verified yet : please confirm that it belongs to you by clicking the confirmation link in the mail we sent you.",
	"WS_UTILISATEUR_TOKEN_INVALIDE": "Your token has expired. Please refresh the page or login again.",
	"WS_UTILISATEUR_INVALIDE" : "Your session has expired. Please login again."
}
